…
Great work! In this plot, we can see that older songs are less popular than new songs, as we might expect. This is also reflected by the negative slope coefficient for song_age that we have seen in previous exercises. Unfortunately, this plot doesn't show us any measure of uncertainty or confidence in our line. We'll add this in the next exercise.

Save the values of the (Intercept) and song_age from each draw from the posterior distributions of stan_model
Print the values to the screen

```{r}
# Save the values from each draw of the posterior distribution
draws <- spread_draws(stan_model, `(Intercept)`, `song_age`)

# Print the `draws` data frame to the console
draws
```
# A tibble: 1,000 x 5
   .chain .iteration .draw `(Intercept)` song_age
    <int>      <int> <int>         <dbl>    <dbl>
 1      1          1     1          65.5 -0.00477
 2      1          2     2          67.6 -0.00546
 3      1          3     3          70.4 -0.00618
 4      1          4     4          69.1 -0.00566
 5      1          5     5          61.9 -0.00432
 6      1          6     6          63.8 -0.00445
 7      1          7     7          69.0 -0.00615
 8      1          8     8          68.5 -0.00557
 9      1          9     9          69.4 -0.00566
10      1         10    10          66.6 -0.00545
# ... with 990 more rows
…
